<svg width="175" height="17" viewBox="0 0 175 17" fill="none" xmlns="http://www.w3.org/2000/svg">
<path d="M120.417 3.18542L121.211 15.3977L129.298 3.2245H130.51L121.253 17H120.375L119.497 5.11985L111.807 17H110.929L109.571 3.2245H110.699L111.807 15.3977L119.581 3.18542H120.417ZM20.1683 6.11675C21.5326 6.11807 22.6456 7.1224 22.7095 8.38363L22.7123 8.49557V10.0102C23.609 10.0116 24.3413 10.6674 24.3924 11.4938L24.3953 11.5863V15.3678C24.3953 16.2072 23.6936 16.8933 22.8088 16.9412L22.7097 16.9439H17.2225C16.3249 16.9439 15.5911 16.2878 15.5398 15.4605L15.537 15.3678V11.5986C15.537 10.7602 16.2372 10.0745 17.121 10.0253L17.2199 10.0225V8.49557C17.2213 7.21893 18.2969 6.17779 19.6468 6.11934L19.7666 6.11675H20.1683ZM14.7716 8.44837e-07C14.9956 -0.000345606 15.2025 0.105884 15.3229 0.278798L15.3597 0.338852L16.9087 3.21601H23.1521C23.68 3.21406 24.1817 3.43067 24.5226 3.80765C24.8391 4.15834 24.9865 4.61386 24.9337 5.06682L24.9164 5.17994L24.4091 6.56361C24.3475 6.89782 24.0078 7.12204 23.6504 7.06441C23.3168 7.01063 23.0857 6.73035 23.1064 6.42149L23.1148 6.35494L23.622 4.96637C23.646 4.83663 23.6076 4.70361 23.517 4.60281C23.4415 4.51882 23.3362 4.46433 23.2217 4.44836L23.1521 4.44347H16.5018C16.2776 4.44221 16.0715 4.33425 15.9526 4.16019L15.9163 4.09978L14.3778 1.22508H7.40981C7.03105 1.22473 6.70392 1.46355 6.60769 1.7997L6.59067 1.87317L4.09123 15.7164H13.8238C14.1863 15.7164 14.4802 15.9912 14.4802 16.3302C14.4802 16.6465 14.2242 16.907 13.8953 16.9403L13.8238 16.9439H2.7575C2.46472 16.9453 2.20962 16.7658 2.12621 16.5089L2.10901 16.4431L0.0270191 5.17994C-0.064545 4.69257 0.0791512 4.19229 0.419535 3.8134C0.735605 3.46157 1.1912 3.24786 1.67839 3.2193L1.79133 3.21601H5.01802L5.30944 1.66942C5.47479 0.743017 6.3057 0.0542331 7.29882 0.00304432L7.40981 8.44837e-07H14.7716ZM39.2171 3.26356C40.3038 3.26356 41.2267 3.37754 41.986 3.6055C42.7453 3.83347 43.3687 4.17541 43.8563 4.63134C44.6086 5.33477 44.9848 6.25314 44.9848 7.38644C44.9848 8.62396 44.5877 9.66282 43.7936 10.503C42.9995 11.3432 41.8223 11.9327 40.262 12.2714L42.7488 16.9414H39.0918L36.8349 12.5645H34.4317L33.1779 16.9414H29.9597L33.8884 3.26356H39.2171ZM60.0098 3.26356L59.2366 5.9405H51.5047L50.7106 8.73468H57.5022L56.729 11.3725H49.9374L49.1015 14.2644H56.9588L56.1856 16.9414H45.1519L49.0806 3.26356H60.0098ZM70.9181 3.16586L73.2377 16.9414H69.936L69.4762 13.8736H63.2907L61.0756 16.9414H57.6066L67.8254 3.16586H70.9181ZM83.2266 3.26356C84.6476 3.26356 85.8178 3.42639 86.7373 3.75205C87.6568 4.07771 88.3951 4.50108 88.9524 5.02213C90.0112 6.01215 90.5406 7.34736 90.5406 9.02778C90.5406 10.0569 90.3386 11.0273 89.9345 11.9392C89.5305 12.8511 88.9315 13.6782 88.1374 14.4207C87.2597 15.2414 86.187 15.8667 84.9192 16.2966C83.6515 16.7264 82.1678 16.9414 80.4681 16.9414H75.0349L78.9635 3.26356H83.2266ZM96.6425 3.26356L98.3561 8.93008L103.371 3.26356H107.258L99.2547 11.822L97.771 16.9414H94.5528L96.0992 11.5484L93.0691 3.26356H96.6425ZM134.648 3.2245L132.83 9.55537H142.087L143.905 3.2245H144.992L141.063 16.9023H139.976L141.815 10.4933H132.558L130.719 16.9023H129.632L133.561 3.2245H134.648ZM159.661 3.2245L159.39 4.1624H150.174L148.628 9.53583H156.903L156.631 10.4737H148.356L146.789 15.9644H156.109L155.837 16.9023H145.431L149.359 3.2245H159.661ZM163.924 3.2245L170.507 15.2023L173.955 3.2245H175L171.071 16.9023H170.277L163.548 4.67043L160.038 16.9023H158.993L162.921 3.2245H163.924ZM22.7097 11.2377H17.2225C17.0353 11.2377 16.8804 11.3667 16.8537 11.5348L16.8497 11.5863V15.3678C16.8497 15.5429 16.9876 15.6878 17.1674 15.7127L17.2225 15.7164H22.7097C22.8969 15.7164 23.0519 15.5875 23.0785 15.4194L23.0825 15.3678V11.5863C23.0825 11.4938 23.0433 11.4052 22.9733 11.3398C22.9034 11.2744 22.8086 11.2377 22.7097 11.2377ZM82.9758 5.97958H81.4085L79.0262 14.2253H80.8443C81.8195 14.2253 82.732 14.0853 83.5818 13.8052C84.4316 13.5252 85.1491 13.1116 85.7342 12.5645C86.2079 12.1216 86.5701 11.607 86.8209 11.0208C87.0716 10.4346 87.197 9.80937 87.197 9.14502C87.197 8.23316 86.9114 7.51019 86.3402 6.97611C86.0198 6.6765 85.5879 6.43551 85.0446 6.25314C84.5013 6.07077 83.8117 5.97958 82.9758 5.97958ZM4.79748 4.44347H1.79133C1.65161 4.44395 1.51911 4.5016 1.42872 4.60122C1.3534 4.68425 1.3136 4.78949 1.31531 4.89691L1.32137 4.96146L3.02004 14.214L4.79748 4.44347ZM68.4314 6.70255L65.2132 11.2162H69.1001L68.4314 6.70255ZM20.1683 7.33194H19.7666C19.4375 7.33194 19.122 7.45483 18.8903 7.67334C18.6843 7.86757 18.5597 8.12304 18.5365 8.39352L18.5326 8.49557V10.0225H21.3996V8.49557C21.4024 8.18828 21.274 7.89265 21.0429 7.67421C20.8117 7.45578 20.4969 7.33258 20.1683 7.33194ZM39.0291 5.97958H36.3333L35.2049 9.90707H38.0678C38.5693 9.90707 39.036 9.85822 39.4679 9.76052C39.8998 9.66282 40.2759 9.51953 40.5964 9.33064C40.9168 9.14176 41.1675 8.90728 41.3486 8.62721C41.5298 8.34714 41.6203 8.01823 41.6203 7.64046C41.6203 7.19756 41.4671 6.83282 41.1606 6.54623C40.7566 6.16846 40.0461 5.97958 39.0291 5.97958Z" fill="#10b8aa"/>
</svg>
